{
  "name": "codeLibrary",
  "path": "/code",
  "depth": 1,
  "breadcrumb": [
    "Home",
    "Code Library"
  ],
  "total_pages": 39261,
  "child_pattern": "/code/{indicator}/{language}",
  "base_paths": {
    "_type": "chunked",
    "total": 1707,
    "chunkSize": 60,
    "totalChunks": 29,
    "chunks": [
      {
        "index": 1,
        "file": "codeLibrary_basepaths.chunk-1-of-29.json",
        "itemCount": 60,
        "startIndex": 1,
        "endIndex": 60,
        "languageChunkFile": "codeLibrary_languages.chunk-1-of-29.json"
      },
      {
        "index": 2,
        "file": "codeLibrary_basepaths.chunk-2-of-29.json",
        "itemCount": 60,
        "startIndex": 61,
        "endIndex": 120,
        "languageChunkFile": "codeLibrary_languages.chunk-2-of-29.json"
      },
      {
        "index": 3,
        "file": "codeLibrary_basepaths.chunk-3-of-29.json",
        "itemCount": 60,
        "startIndex": 121,
        "endIndex": 180,
        "languageChunkFile": "codeLibrary_languages.chunk-3-of-29.json"
      },
      {
        "index": 4,
        "file": "codeLibrary_basepaths.chunk-4-of-29.json",
        "itemCount": 60,
        "startIndex": 181,
        "endIndex": 240,
        "languageChunkFile": "codeLibrary_languages.chunk-4-of-29.json"
      },
      {
        "index": 5,
        "file": "codeLibrary_basepaths.chunk-5-of-29.json",
        "itemCount": 60,
        "startIndex": 241,
        "endIndex": 300,
        "languageChunkFile": "codeLibrary_languages.chunk-5-of-29.json"
      },
      {
        "index": 6,
        "file": "codeLibrary_basepaths.chunk-6-of-29.json",
        "itemCount": 60,
        "startIndex": 301,
        "endIndex": 360,
        "languageChunkFile": "codeLibrary_languages.chunk-6-of-29.json"
      },
      {
        "index": 7,
        "file": "codeLibrary_basepaths.chunk-7-of-29.json",
        "itemCount": 60,
        "startIndex": 361,
        "endIndex": 420,
        "languageChunkFile": "codeLibrary_languages.chunk-7-of-29.json"
      },
      {
        "index": 8,
        "file": "codeLibrary_basepaths.chunk-8-of-29.json",
        "itemCount": 60,
        "startIndex": 421,
        "endIndex": 480,
        "languageChunkFile": "codeLibrary_languages.chunk-8-of-29.json"
      },
      {
        "index": 9,
        "file": "codeLibrary_basepaths.chunk-9-of-29.json",
        "itemCount": 60,
        "startIndex": 481,
        "endIndex": 540,
        "languageChunkFile": "codeLibrary_languages.chunk-9-of-29.json"
      },
      {
        "index": 10,
        "file": "codeLibrary_basepaths.chunk-10-of-29.json",
        "itemCount": 60,
        "startIndex": 541,
        "endIndex": 600,
        "languageChunkFile": "codeLibrary_languages.chunk-10-of-29.json"
      },
      {
        "index": 11,
        "file": "codeLibrary_basepaths.chunk-11-of-29.json",
        "itemCount": 60,
        "startIndex": 601,
        "endIndex": 660,
        "languageChunkFile": "codeLibrary_languages.chunk-11-of-29.json"
      },
      {
        "index": 12,
        "file": "codeLibrary_basepaths.chunk-12-of-29.json",
        "itemCount": 60,
        "startIndex": 661,
        "endIndex": 720,
        "languageChunkFile": "codeLibrary_languages.chunk-12-of-29.json"
      },
      {
        "index": 13,
        "file": "codeLibrary_basepaths.chunk-13-of-29.json",
        "itemCount": 60,
        "startIndex": 721,
        "endIndex": 780,
        "languageChunkFile": "codeLibrary_languages.chunk-13-of-29.json"
      },
      {
        "index": 14,
        "file": "codeLibrary_basepaths.chunk-14-of-29.json",
        "itemCount": 60,
        "startIndex": 781,
        "endIndex": 840,
        "languageChunkFile": "codeLibrary_languages.chunk-14-of-29.json"
      },
      {
        "index": 15,
        "file": "codeLibrary_basepaths.chunk-15-of-29.json",
        "itemCount": 60,
        "startIndex": 841,
        "endIndex": 900,
        "languageChunkFile": "codeLibrary_languages.chunk-15-of-29.json"
      },
      {
        "index": 16,
        "file": "codeLibrary_basepaths.chunk-16-of-29.json",
        "itemCount": 60,
        "startIndex": 901,
        "endIndex": 960,
        "languageChunkFile": "codeLibrary_languages.chunk-16-of-29.json"
      },
      {
        "index": 17,
        "file": "codeLibrary_basepaths.chunk-17-of-29.json",
        "itemCount": 60,
        "startIndex": 961,
        "endIndex": 1020,
        "languageChunkFile": "codeLibrary_languages.chunk-17-of-29.json"
      },
      {
        "index": 18,
        "file": "codeLibrary_basepaths.chunk-18-of-29.json",
        "itemCount": 60,
        "startIndex": 1021,
        "endIndex": 1080,
        "languageChunkFile": "codeLibrary_languages.chunk-18-of-29.json"
      },
      {
        "index": 19,
        "file": "codeLibrary_basepaths.chunk-19-of-29.json",
        "itemCount": 60,
        "startIndex": 1081,
        "endIndex": 1140,
        "languageChunkFile": "codeLibrary_languages.chunk-19-of-29.json"
      },
      {
        "index": 20,
        "file": "codeLibrary_basepaths.chunk-20-of-29.json",
        "itemCount": 60,
        "startIndex": 1141,
        "endIndex": 1200,
        "languageChunkFile": "codeLibrary_languages.chunk-20-of-29.json"
      },
      {
        "index": 21,
        "file": "codeLibrary_basepaths.chunk-21-of-29.json",
        "itemCount": 60,
        "startIndex": 1201,
        "endIndex": 1260,
        "languageChunkFile": "codeLibrary_languages.chunk-21-of-29.json"
      },
      {
        "index": 22,
        "file": "codeLibrary_basepaths.chunk-22-of-29.json",
        "itemCount": 60,
        "startIndex": 1261,
        "endIndex": 1320,
        "languageChunkFile": "codeLibrary_languages.chunk-22-of-29.json"
      },
      {
        "index": 23,
        "file": "codeLibrary_basepaths.chunk-23-of-29.json",
        "itemCount": 60,
        "startIndex": 1321,
        "endIndex": 1380,
        "languageChunkFile": "codeLibrary_languages.chunk-23-of-29.json"
      },
      {
        "index": 24,
        "file": "codeLibrary_basepaths.chunk-24-of-29.json",
        "itemCount": 60,
        "startIndex": 1381,
        "endIndex": 1440,
        "languageChunkFile": "codeLibrary_languages.chunk-24-of-29.json"
      },
      {
        "index": 25,
        "file": "codeLibrary_basepaths.chunk-25-of-29.json",
        "itemCount": 60,
        "startIndex": 1441,
        "endIndex": 1500,
        "languageChunkFile": "codeLibrary_languages.chunk-25-of-29.json"
      },
      {
        "index": 26,
        "file": "codeLibrary_basepaths.chunk-26-of-29.json",
        "itemCount": 60,
        "startIndex": 1501,
        "endIndex": 1560,
        "languageChunkFile": "codeLibrary_languages.chunk-26-of-29.json"
      },
      {
        "index": 27,
        "file": "codeLibrary_basepaths.chunk-27-of-29.json",
        "itemCount": 60,
        "startIndex": 1561,
        "endIndex": 1620,
        "languageChunkFile": "codeLibrary_languages.chunk-27-of-29.json"
      },
      {
        "index": 28,
        "file": "codeLibrary_basepaths.chunk-28-of-29.json",
        "itemCount": 60,
        "startIndex": 1621,
        "endIndex": 1680,
        "languageChunkFile": "codeLibrary_languages.chunk-28-of-29.json"
      },
      {
        "index": 29,
        "file": "codeLibrary_basepaths.chunk-29-of-29.json",
        "itemCount": 27,
        "startIndex": 1681,
        "endIndex": 1707,
        "languageChunkFile": "codeLibrary_languages.chunk-29-of-29.json"
      }
    ]
  },
  "language_paths": {
    "_type": "chunked",
    "total": 37554,
    "chunkSize": 60,
    "totalChunks": 29,
    "chunks": [
      {
        "index": 1,
        "file": "codeLibrary_languages.chunk-1-of-29.json",
        "itemCount": 1320,
        "startIndex": 1,
        "endIndex": 1320,
        "correspondingBaseChunk": 1,
        "baseChunkFile": "codeLibrary_basepaths.chunk-1-of-29.json"
      },
      {
        "index": 2,
        "file": "codeLibrary_languages.chunk-2-of-29.json",
        "itemCount": 1320,
        "startIndex": 1321,
        "endIndex": 2640,
        "correspondingBaseChunk": 2,
        "baseChunkFile": "codeLibrary_basepaths.chunk-2-of-29.json"
      },
      {
        "index": 3,
        "file": "codeLibrary_languages.chunk-3-of-29.json",
        "itemCount": 1320,
        "startIndex": 2641,
        "endIndex": 3960,
        "correspondingBaseChunk": 3,
        "baseChunkFile": "codeLibrary_basepaths.chunk-3-of-29.json"
      },
      {
        "index": 4,
        "file": "codeLibrary_languages.chunk-4-of-29.json",
        "itemCount": 1320,
        "startIndex": 3961,
        "endIndex": 5280,
        "correspondingBaseChunk": 4,
        "baseChunkFile": "codeLibrary_basepaths.chunk-4-of-29.json"
      },
      {
        "index": 5,
        "file": "codeLibrary_languages.chunk-5-of-29.json",
        "itemCount": 1320,
        "startIndex": 5281,
        "endIndex": 6600,
        "correspondingBaseChunk": 5,
        "baseChunkFile": "codeLibrary_basepaths.chunk-5-of-29.json"
      },
      {
        "index": 6,
        "file": "codeLibrary_languages.chunk-6-of-29.json",
        "itemCount": 1320,
        "startIndex": 6601,
        "endIndex": 7920,
        "correspondingBaseChunk": 6,
        "baseChunkFile": "codeLibrary_basepaths.chunk-6-of-29.json"
      },
      {
        "index": 7,
        "file": "codeLibrary_languages.chunk-7-of-29.json",
        "itemCount": 1320,
        "startIndex": 7921,
        "endIndex": 9240,
        "correspondingBaseChunk": 7,
        "baseChunkFile": "codeLibrary_basepaths.chunk-7-of-29.json"
      },
      {
        "index": 8,
        "file": "codeLibrary_languages.chunk-8-of-29.json",
        "itemCount": 1320,
        "startIndex": 9241,
        "endIndex": 10560,
        "correspondingBaseChunk": 8,
        "baseChunkFile": "codeLibrary_basepaths.chunk-8-of-29.json"
      },
      {
        "index": 9,
        "file": "codeLibrary_languages.chunk-9-of-29.json",
        "itemCount": 1320,
        "startIndex": 10561,
        "endIndex": 11880,
        "correspondingBaseChunk": 9,
        "baseChunkFile": "codeLibrary_basepaths.chunk-9-of-29.json"
      },
      {
        "index": 10,
        "file": "codeLibrary_languages.chunk-10-of-29.json",
        "itemCount": 1320,
        "startIndex": 11881,
        "endIndex": 13200,
        "correspondingBaseChunk": 10,
        "baseChunkFile": "codeLibrary_basepaths.chunk-10-of-29.json"
      },
      {
        "index": 11,
        "file": "codeLibrary_languages.chunk-11-of-29.json",
        "itemCount": 1320,
        "startIndex": 13201,
        "endIndex": 14520,
        "correspondingBaseChunk": 11,
        "baseChunkFile": "codeLibrary_basepaths.chunk-11-of-29.json"
      },
      {
        "index": 12,
        "file": "codeLibrary_languages.chunk-12-of-29.json",
        "itemCount": 1320,
        "startIndex": 14521,
        "endIndex": 15840,
        "correspondingBaseChunk": 12,
        "baseChunkFile": "codeLibrary_basepaths.chunk-12-of-29.json"
      },
      {
        "index": 13,
        "file": "codeLibrary_languages.chunk-13-of-29.json",
        "itemCount": 1320,
        "startIndex": 15841,
        "endIndex": 17160,
        "correspondingBaseChunk": 13,
        "baseChunkFile": "codeLibrary_basepaths.chunk-13-of-29.json"
      },
      {
        "index": 14,
        "file": "codeLibrary_languages.chunk-14-of-29.json",
        "itemCount": 1320,
        "startIndex": 17161,
        "endIndex": 18480,
        "correspondingBaseChunk": 14,
        "baseChunkFile": "codeLibrary_basepaths.chunk-14-of-29.json"
      },
      {
        "index": 15,
        "file": "codeLibrary_languages.chunk-15-of-29.json",
        "itemCount": 1320,
        "startIndex": 18481,
        "endIndex": 19800,
        "correspondingBaseChunk": 15,
        "baseChunkFile": "codeLibrary_basepaths.chunk-15-of-29.json"
      },
      {
        "index": 16,
        "file": "codeLibrary_languages.chunk-16-of-29.json",
        "itemCount": 1320,
        "startIndex": 19801,
        "endIndex": 21120,
        "correspondingBaseChunk": 16,
        "baseChunkFile": "codeLibrary_basepaths.chunk-16-of-29.json"
      },
      {
        "index": 17,
        "file": "codeLibrary_languages.chunk-17-of-29.json",
        "itemCount": 1320,
        "startIndex": 21121,
        "endIndex": 22440,
        "correspondingBaseChunk": 17,
        "baseChunkFile": "codeLibrary_basepaths.chunk-17-of-29.json"
      },
      {
        "index": 18,
        "file": "codeLibrary_languages.chunk-18-of-29.json",
        "itemCount": 1320,
        "startIndex": 22441,
        "endIndex": 23760,
        "correspondingBaseChunk": 18,
        "baseChunkFile": "codeLibrary_basepaths.chunk-18-of-29.json"
      },
      {
        "index": 19,
        "file": "codeLibrary_languages.chunk-19-of-29.json",
        "itemCount": 1320,
        "startIndex": 23761,
        "endIndex": 25080,
        "correspondingBaseChunk": 19,
        "baseChunkFile": "codeLibrary_basepaths.chunk-19-of-29.json"
      },
      {
        "index": 20,
        "file": "codeLibrary_languages.chunk-20-of-29.json",
        "itemCount": 1320,
        "startIndex": 25081,
        "endIndex": 26400,
        "correspondingBaseChunk": 20,
        "baseChunkFile": "codeLibrary_basepaths.chunk-20-of-29.json"
      },
      {
        "index": 21,
        "file": "codeLibrary_languages.chunk-21-of-29.json",
        "itemCount": 1320,
        "startIndex": 26401,
        "endIndex": 27720,
        "correspondingBaseChunk": 21,
        "baseChunkFile": "codeLibrary_basepaths.chunk-21-of-29.json"
      },
      {
        "index": 22,
        "file": "codeLibrary_languages.chunk-22-of-29.json",
        "itemCount": 1320,
        "startIndex": 27721,
        "endIndex": 29040,
        "correspondingBaseChunk": 22,
        "baseChunkFile": "codeLibrary_basepaths.chunk-22-of-29.json"
      },
      {
        "index": 23,
        "file": "codeLibrary_languages.chunk-23-of-29.json",
        "itemCount": 1320,
        "startIndex": 29041,
        "endIndex": 30360,
        "correspondingBaseChunk": 23,
        "baseChunkFile": "codeLibrary_basepaths.chunk-23-of-29.json"
      },
      {
        "index": 24,
        "file": "codeLibrary_languages.chunk-24-of-29.json",
        "itemCount": 1320,
        "startIndex": 30361,
        "endIndex": 31680,
        "correspondingBaseChunk": 24,
        "baseChunkFile": "codeLibrary_basepaths.chunk-24-of-29.json"
      },
      {
        "index": 25,
        "file": "codeLibrary_languages.chunk-25-of-29.json",
        "itemCount": 1320,
        "startIndex": 31681,
        "endIndex": 33000,
        "correspondingBaseChunk": 25,
        "baseChunkFile": "codeLibrary_basepaths.chunk-25-of-29.json"
      },
      {
        "index": 26,
        "file": "codeLibrary_languages.chunk-26-of-29.json",
        "itemCount": 1320,
        "startIndex": 33001,
        "endIndex": 34320,
        "correspondingBaseChunk": 26,
        "baseChunkFile": "codeLibrary_basepaths.chunk-26-of-29.json"
      },
      {
        "index": 27,
        "file": "codeLibrary_languages.chunk-27-of-29.json",
        "itemCount": 1320,
        "startIndex": 34321,
        "endIndex": 35640,
        "correspondingBaseChunk": 27,
        "baseChunkFile": "codeLibrary_basepaths.chunk-27-of-29.json"
      },
      {
        "index": 28,
        "file": "codeLibrary_languages.chunk-28-of-29.json",
        "itemCount": 1320,
        "startIndex": 35641,
        "endIndex": 36960,
        "correspondingBaseChunk": 28,
        "baseChunkFile": "codeLibrary_basepaths.chunk-28-of-29.json"
      },
      {
        "index": 29,
        "file": "codeLibrary_languages.chunk-29-of-29.json",
        "itemCount": 594,
        "startIndex": 36961,
        "endIndex": 37554,
        "correspondingBaseChunk": 29,
        "baseChunkFile": "codeLibrary_basepaths.chunk-29-of-29.json"
      }
    ]
  },
  "incoming_backlinks": [
    {
      "from": "/",
      "anchor": "Code Library",
      "position": "header"
    },
    {
      "from": "/indicators",
      "anchor": "Implementation Code",
      "position": "cta"
    }
  ],
  "outgoing_backlinks": [
    {
      "to": "/benchmarks",
      "anchor": "Performance Benchmarks",
      "position": "content"
    },
    {
      "to": "/examples",
      "anchor": "Usage Examples",
      "position": "sidebar"
    },
    {
      "to": "/indicators",
      "anchor": "Indicator Documentation",
      "position": "footer"
    }
  ],
  "total_base_paths": 1707,
  "total_language_paths": 37554,
  "_metadata": {
    "categoryName": "codeLibrary",
    "displayName": "Code Library",
    "totalItems": 1707,
    "chunkSize": 60,
    "totalChunks": 29,
    "chunkFiles": [
      "codeLibrary_basepaths.chunk-1-of-29.json",
      "codeLibrary_basepaths.chunk-2-of-29.json",
      "codeLibrary_basepaths.chunk-3-of-29.json",
      "codeLibrary_basepaths.chunk-4-of-29.json",
      "codeLibrary_basepaths.chunk-5-of-29.json",
      "codeLibrary_basepaths.chunk-6-of-29.json",
      "codeLibrary_basepaths.chunk-7-of-29.json",
      "codeLibrary_basepaths.chunk-8-of-29.json",
      "codeLibrary_basepaths.chunk-9-of-29.json",
      "codeLibrary_basepaths.chunk-10-of-29.json",
      "codeLibrary_basepaths.chunk-11-of-29.json",
      "codeLibrary_basepaths.chunk-12-of-29.json",
      "codeLibrary_basepaths.chunk-13-of-29.json",
      "codeLibrary_basepaths.chunk-14-of-29.json",
      "codeLibrary_basepaths.chunk-15-of-29.json",
      "codeLibrary_basepaths.chunk-16-of-29.json",
      "codeLibrary_basepaths.chunk-17-of-29.json",
      "codeLibrary_basepaths.chunk-18-of-29.json",
      "codeLibrary_basepaths.chunk-19-of-29.json",
      "codeLibrary_basepaths.chunk-20-of-29.json",
      "codeLibrary_basepaths.chunk-21-of-29.json",
      "codeLibrary_basepaths.chunk-22-of-29.json",
      "codeLibrary_basepaths.chunk-23-of-29.json",
      "codeLibrary_basepaths.chunk-24-of-29.json",
      "codeLibrary_basepaths.chunk-25-of-29.json",
      "codeLibrary_basepaths.chunk-26-of-29.json",
      "codeLibrary_basepaths.chunk-27-of-29.json",
      "codeLibrary_basepaths.chunk-28-of-29.json",
      "codeLibrary_basepaths.chunk-29-of-29.json"
    ]
  }
}